{
    "RECORDS": [
        {
            "category_fertilizer_id": "1",
            "language_id": "1",
            "name": "Phân bón NPK"
        },
        {
            "category_fertilizer_id": "2",
            "language_id": "1",
            "name": "Phân bón gốc"
        },
        {
            "category_fertilizer_id": "3",
            "language_id": "1",
            "name": "Phân bón lá ra rễ"
        },
        {
            "category_fertilizer_id": "4",
            "language_id": "1",
            "name": "Phân vi sinh"
        }
    ]
}