{
    "RECORDS": [
        {
            "id": "3",
            "finished_product_id": "1",
            "farm_id": "2",
            "gtin": "gtin-Khoitest-sau rieng r6",
            "created_at": "2020-6-3 09:22:47",
            "updated_at": "2020-6-3 09:22:47",
            "created_by": "0xc6102f829640F22cea284e43d1a5283fD16be638",
            "created_tx": "0xa91a89b558846b957f549e77fae848e07e45228895db89cc0bd76a4a4999ffd6",
            "modified_by": "",
            "modified_tx": "",
            "status": "1"
        }
    ]
}