{
    "RECORDS": [
        {
            "method_fertilizer_id": "1",
            "language_id": "1",
            "name": "Bón gốc"
        },
        {
            "method_fertilizer_id": "2",
            "language_id": "1",
            "name": "Bón lá"
        }
    ]
}