{
    "RECORDS": [
        {
            "id": "1",
            "created_at": "2020-6-3 07:59:48",
            "updated_at": "2020-6-3 07:59:48",
            "created_by": "0xc1fe56E3F58D3244F606306611a5d10c8333f1f6",
            "created_tx": "0x4ada78165b2b86b1e18b06cb76ddd949d07e7ea119d49620e6cb2e5f664b7b67",
            "modified_by": "0xc1fe56E3F58D3244F606306611a5d10c8333f1f6",
            "modified_tx": "0x4ada78165b2b86b1e18b06cb76ddd949d07e7ea119d49620e6cb2e5f664b7b67",
            "status": "1"
        }
    ]
}