{
    "RECORDS": [
        {
            "weather_id": "1",
            "language_id": "1",
            "name": "Nắng"
        },
        {
            "weather_id": "2",
            "language_id": "1",
            "name": "Mưa"
        },
        {
            "weather_id": "3",
            "language_id": "1",
            "name": "Gió lớn"
        }
    ]
}